%YAML 1.1
%TAG !u! tag:unity3d.com,2011:
--- !u!114 &11400000
MonoBehaviour:
  m_ObjectHideFlags: 0
  m_CorrespondingSourceObject: {fileID: 0}
  m_PrefabInstance: {fileID: 0}
  m_PrefabAsset: {fileID: 0}
  m_GameObject: {fileID: 0}
  m_Enabled: 1
  m_EditorHideFlags: 0
  m_Script: {fileID: 11500000, guid: b56a09fec9ba3d341a71d36eb833d817, type: 3}
  m_Name: A3 Pushups
  m_EditorClassIdentifier: 
  storyText: 'A nice start for the day. you do 20 pushups and get your blood pumping!


    1. Breakfast

    2. Sleep

    3. Play with your phone

    4. Computer time!'
  nextStates:
  - {fileID: 11400000, guid: d8f0873c8a251f848bbccbed04c3b158, type: 2}
  - {fileID: 11400000, guid: 86327df9c24eafa479b4d750eb03e0f0, type: 2}
  - {fileID: 11400000, guid: 78876e6d375230644908badc7c599a52, type: 2}
  - {fileID: 11400000, guid: 16504fce726cab548a3ec84639e34fd3, type: 2}
  tierdness: 3
  resetable: 0
