%YAML 1.1
%TAG !u! tag:unity3d.com,2011:
--- !u!114 &11400000
MonoBehaviour:
  m_ObjectHideFlags: 0
  m_CorrespondingSourceObject: {fileID: 0}
  m_PrefabInstance: {fileID: 0}
  m_PrefabAsset: {fileID: 0}
  m_GameObject: {fileID: 0}
  m_Enabled: 1
  m_EditorHideFlags: 0
  m_Script: {fileID: 11500000, guid: b56a09fec9ba3d341a71d36eb833d817, type: 3}
  m_Name: A4 Phone
  m_EditorClassIdentifier: 
  storyText: 'You start playing with your phone. You check in your daily login streaks
    and browse trough social media.


    What do you want to do now?


    1. Breakfast

    2. Pushups

    3. Back to sleep

    4. Computer time'
  nextStates:
  - {fileID: 11400000, guid: d8f0873c8a251f848bbccbed04c3b158, type: 2}
  - {fileID: 11400000, guid: 91bac6ac77016ac45b1c8d7e81737b61, type: 2}
  - {fileID: 11400000, guid: 86327df9c24eafa479b4d750eb03e0f0, type: 2}
  - {fileID: 11400000, guid: 16504fce726cab548a3ec84639e34fd3, type: 2}
  tierdness: 1
  resetable: 0
